D:\code\PP\src\test\java\ru\ifmo\pp\fgb\LinearizabilityTest.java
D:\code\PP\src\test\java\ru\ifmo\pp\fgb\Results.java
D:\code\PP\src\test\java\ru\ifmo\pp\fgb\SequentialBank.java
D:\code\PP\src\test\java\ru\ifmo\pp\fgb\Operation.java
D:\code\PP\src\test\java\ru\ifmo\pp\fgb\FunctionalTest.java
D:\code\PP\src\test\java\ru\ifmo\pp\fgb\MTStressTest.java
